%YAML 1.1
%TAG !u! tag:unity3d.com,2011:
--- !u!74 &7400000
AnimationClip:
  m_ObjectHideFlags: 0
  m_PrefabParentObject: {fileID: 0}
  m_PrefabInternal: {fileID: 0}
  m_Name: CubeMotion_Idle
  serializedVersion: 6
  m_Legacy: 0
  m_Compressed: 0
  m_UseHighQualityCurve: 1
  m_RotationCurves:
  - curve:
      serializedVersion: 2
      m_Curve:
      - time: 0
        value: {x: 0, y: 0, z: 0, w: 1}
        inSlope: {x: 0, y: .785375834, z: 0, w: -.00513911201}
        outSlope: {x: 0, y: .785375834, z: 0, w: -.00513911201}
        tangentMode: 0
      - time: .0166666675
        value: {x: 0, y: .0130895982, z: 0, w: .999914348}
        inSlope: {x: 0, y: .785308599, z: 0, w: -.0102800122}
        outSlope: {x: 0, y: .785308599, z: 0, w: -.0102800122}
        tangentMode: 0
      - time: .0333333351
        value: {x: 0, y: .0261769537, z: 0, w: .999657333}
        inSlope: {x: 0, y: .785106719, z: 0, w: -.0205600243}
        outSlope: {x: 0, y: .785106719, z: 0, w: -.0205600243}
        tangentMode: 0
      - time: .0500000045
        value: {x: 0, y: .0392598249, z: 0, w: .999229014}
        inSlope: {x: 0, y: .78477037, z: 0, w: -.0308346748}
        outSlope: {x: 0, y: .78477037, z: 0, w: -.0308346748}
        tangentMode: 0
      - time: .0666666701
        value: {x: 0, y: .0523359664, z: 0, w: .99862951}
        inSlope: {x: 0, y: .784299552, z: 0, w: -.0411021747}
        outSlope: {x: 0, y: .784299552, z: 0, w: -.0411021747}
        tangentMode: 0
      - time: .0833333358
        value: {x: 0, y: .0654031411, z: 0, w: .997858942}
        inSlope: {x: 0, y: .783694267, z: 0, w: -.0513660945}
        outSlope: {x: 0, y: .783694267, z: 0, w: -.0513660945}
        tangentMode: 0
      - time: .100000001
        value: {x: 0, y: .0784591064, z: 0, w: .996917307}
        inSlope: {x: 0, y: .782954752, z: 0, w: -.0616210774}
        outSlope: {x: 0, y: .782954752, z: 0, w: -.0616210774}
        tangentMode: 0
      - time: .116666667
        value: {x: 0, y: .0915016308, z: 0, w: .995804906}
        inSlope: {x: 0, y: .782081068, z: 0, w: -.071861729}
        outSlope: {x: 0, y: .782081068, z: 0, w: -.071861729}
        tangentMode: 0
      - time: .13333334
        value: {x: 0, y: .104528479, z: 0, w: .994521916}
        inSlope: {x: 0, y: .781073451, z: 0, w: -.0820934623}
        outSlope: {x: 0, y: .781073451, z: 0, w: -.0820934623}
        tangentMode: 0
      - time: .150000006
        value: {x: 0, y: .117537417, z: 0, w: .993068457}
        inSlope: {x: 0, y: .779932141, z: 0, w: -.0923109129}
        outSlope: {x: 0, y: .779932141, z: 0, w: -.0923109129}
        tangentMode: 0
      - time: .166666672
        value: {x: 0, y: .130526215, z: 0, w: .991444886}
        inSlope: {x: 0, y: .778656721, z: 0, w: -.102512248}
        outSlope: {x: 0, y: .778656721, z: 0, w: -.102512248}
        tangentMode: 0
      - time: .183333337
        value: {x: 0, y: .143492639, z: 0, w: .989651382}
        inSlope: {x: 0, y: .777248383, z: 0, w: -.112695701}
        outSlope: {x: 0, y: .777248383, z: 0, w: -.112695701}
        tangentMode: 0
      - time: .200000003
        value: {x: 0, y: .156434491, z: 0, w: .987688363}
        inSlope: {x: 0, y: .77570653, z: 0, w: -.122859493}
        outSlope: {x: 0, y: .77570653, z: 0, w: -.122859493}
        tangentMode: 0
      - time: .216666669
        value: {x: 0, y: .169349521, z: 0, w: .985556066}
        inSlope: {x: 0, y: .77403152, z: 0, w: -.133003607}
        outSlope: {x: 0, y: .77403152, z: 0, w: -.133003607}
        tangentMode: 0
      - time: .233333334
        value: {x: 0, y: .182235539, z: 0, w: .98325491}
        inSlope: {x: 0, y: .772224545, z: 0, w: -.143124476}
        outSlope: {x: 0, y: .772224545, z: 0, w: -.143124476}
        tangentMode: 0
      - time: .25
        value: {x: 0, y: .195090339, z: 0, w: .980785251}
        inSlope: {x: 0, y: .770285428, z: 0, w: -.153220236}
        outSlope: {x: 0, y: .770285428, z: 0, w: -.153220236}
        tangentMode: 0
      - time: .266666681
        value: {x: 0, y: .20791173, z: 0, w: .978147566}
        inSlope: {x: 0, y: .768213511, z: 0, w: -.163287386}
        outSlope: {x: 0, y: .768213511, z: 0, w: -.163287386}
        tangentMode: 0
      - time: .283333361
        value: {x: 0, y: .220697477, z: 0, w: .975342333}
        inSlope: {x: 0, y: .766010046, z: 0, w: -.173329562}
        outSlope: {x: 0, y: .766010046, z: 0, w: -.173329562}
        tangentMode: 0
      - time: .300000042
        value: {x: 0, y: .233445421, z: 0, w: .972369909}
        inSlope: {x: 0, y: .763675213, z: 0, w: -.183343142}
        outSlope: {x: 0, y: .763675213, z: 0, w: -.183343142}
        tangentMode: 0
      - time: .316666722
        value: {x: 0, y: .24615334, z: 0, w: .96923089}
        inSlope: {x: 0, y: .761209846, z: 0, w: -.193322733}
        outSlope: {x: 0, y: .761209846, z: 0, w: -.193322733}
        tangentMode: 0
      - time: .333333403
        value: {x: 0, y: .258819103, z: 0, w: .965925813}
        inSlope: {x: 0, y: .758615255, z: 0, w: -.203270137}
        outSlope: {x: 0, y: .758615255, z: 0, w: -.203270137}
        tangentMode: 0
      - time: .350000083
        value: {x: 0, y: .271440536, z: 0, w: .962455213}
        inSlope: {x: 0, y: .755889654, z: 0, w: -.213183582}
        outSlope: {x: 0, y: .755889654, z: 0, w: -.213183582}
        tangentMode: 0
      - time: .366666764
        value: {x: 0, y: .284015447, z: 0, w: .958819687}
        inSlope: {x: 0, y: .753033102, z: 0, w: -.223059475}
        outSlope: {x: 0, y: .753033102, z: 0, w: -.223059475}
        tangentMode: 0
      - time: .383333445
        value: {x: 0, y: .296541661, z: 0, w: .955019891}
        inSlope: {x: 0, y: .750049591, z: 0, w: -.232896015}
        outSlope: {x: 0, y: .750049591, z: 0, w: -.232896015}
        tangentMode: 0
      - time: .400000125
        value: {x: 0, y: .309017122, z: 0, w: .95105648}
        inSlope: {x: 0, y: .746937394, z: 0, w: -.242693216}
        outSlope: {x: 0, y: .746937394, z: 0, w: -.242693216}
        tangentMode: 0
      - time: .416666806
        value: {x: 0, y: .321439594, z: 0, w: .94693011}
        inSlope: {x: 0, y: .743696392, z: 0, w: -.252451092}
        outSlope: {x: 0, y: .743696392, z: 0, w: -.252451092}
        tangentMode: 0
      - time: .433333486
        value: {x: 0, y: .333807021, z: 0, w: .942641437}
        inSlope: {x: 0, y: .740328431, z: 0, w: -.262164265}
        outSlope: {x: 0, y: .740328431, z: 0, w: -.262164265}
        tangentMode: 0
      - time: .450000167
        value: {x: 0, y: .346117228, z: 0, w: .938191295}
        inSlope: {x: 0, y: .736831725, z: 0, w: -.271830916}
        outSlope: {x: 0, y: .736831725, z: 0, w: -.271830916}
        tangentMode: 0
      - time: .466666847
        value: {x: 0, y: .358368099, z: 0, w: .933580399}
        inSlope: {x: 0, y: .733210742, z: 0, w: -.281454682}
        outSlope: {x: 0, y: .733210742, z: 0, w: -.281454682}
        tangentMode: 0
      - time: .483333528
        value: {x: 0, y: .370557606, z: 0, w: .928809464}
        inSlope: {x: 0, y: .729464352, z: 0, w: -.291028619}
        outSlope: {x: 0, y: .729464352, z: 0, w: -.291028619}
        tangentMode: 0
      - time: .500000179
        value: {x: 0, y: .382683575, z: 0, w: .923879445}
        inSlope: {x: 0, y: .725592792, z: 0, w: -.300550759}
        outSlope: {x: 0, y: .725592792, z: 0, w: -.300550759}
        tangentMode: 0
      - time: .51666683
        value: {x: 0, y: .394744009, z: 0, w: .918791115}
        inSlope: {x: 0, y: .721597195, z: 0, w: -.310022533}
        outSlope: {x: 0, y: .721597195, z: 0, w: -.310022533}
        tangentMode: 0
      - time: .53333348
        value: {x: 0, y: .406736791, z: 0, w: .91354537}
        inSlope: {x: 0, y: .717476368, z: 0, w: -.319440663}
        outSlope: {x: 0, y: .717476368, z: 0, w: -.319440663}
        tangentMode: 0
      - time: .550000131
        value: {x: 0, y: .418659866, z: 0, w: .908143103}
        inSlope: {x: 0, y: .713233113, z: 0, w: -.328805149}
        outSlope: {x: 0, y: .713233113, z: 0, w: -.328805149}
        tangentMode: 0
      - time: .566666782
        value: {x: 0, y: .430511206, z: 0, w: .902585208}
        inSlope: {x: 0, y: .708868265, z: 0, w: -.338112444}
        outSlope: {x: 0, y: .708868265, z: 0, w: -.338112444}
        tangentMode: 0
      - time: .583333433
        value: {x: 0, y: .442288786, z: 0, w: .896872699}
        inSlope: {x: 0, y: .704381824, z: 0, w: -.347362489}
        outSlope: {x: 0, y: .704381824, z: 0, w: -.347362489}
        tangentMode: 0
      - time: .600000083
        value: {x: 0, y: .453990579, z: 0, w: .89100647}
        inSlope: {x: 0, y: .699775577, z: 0, w: -.356553555}
        outSlope: {x: 0, y: .699775577, z: 0, w: -.356553555}
        tangentMode: 0
      - time: .616666734
        value: {x: 0, y: .465614617, z: 0, w: .884987593}
        inSlope: {x: 0, y: .695047736, z: 0, w: -.365682006}
        outSlope: {x: 0, y: .695047736, z: 0, w: -.365682006}
        tangentMode: 0
      - time: .633333385
        value: {x: 0, y: .477158815, z: 0, w: .878817081}
        inSlope: {x: 0, y: .690201879, z: 0, w: -.37474966}
        outSlope: {x: 0, y: .690201879, z: 0, w: -.37474966}
        tangentMode: 0
      - time: .650000036
        value: {x: 0, y: .488621324, z: 0, w: .872495949}
        inSlope: {x: 0, y: .685238004, z: 0, w: -.383751154}
        outSlope: {x: 0, y: .685238004, z: 0, w: -.383751154}
        tangentMode: 0
      - time: .666666687
        value: {x: 0, y: .50000006, z: 0, w: .866025388}
        inSlope: {x: 0, y: .680154324, z: 0, w: -.392688274}
        outSlope: {x: 0, y: .680154324, z: 0, w: -.392688274}
        tangentMode: 0
      - time: .683333337
        value: {x: 0, y: .511293113, z: 0, w: .859406352}
        inSlope: {x: 0, y: .674957097, z: 0, w: -.401557475}
        outSlope: {x: 0, y: .674957097, z: 0, w: -.401557475}
        tangentMode: 0
      - time: .699999988
        value: {x: 0, y: .522498608, z: 0, w: .852640152}
        inSlope: {x: 0, y: .669642746, z: 0, w: -.410356909}
        outSlope: {x: 0, y: .669642746, z: 0, w: -.410356909}
        tangentMode: 0
      - time: .716666639
        value: {x: 0, y: .533614516, z: 0, w: .845727801}
        inSlope: {x: 0, y: .664215744, z: 0, w: -.419088423}
        outSlope: {x: 0, y: .664215744, z: 0, w: -.419088423}
        tangentMode: 0
      - time: .73333329
        value: {x: 0, y: .544639111, z: 0, w: .838670552}
        inSlope: {x: 0, y: .658672452, z: 0, w: -.427746594}
        outSlope: {x: 0, y: .658672452, z: 0, w: -.427746594}
        tangentMode: 0
      - time: .74999994
        value: {x: 0, y: .555570245, z: 0, w: .831469595}
        inSlope: {x: 0, y: .653014779, z: 0, w: -.436331451}
        outSlope: {x: 0, y: .653014779, z: 0, w: -.436331451}
        tangentMode: 0
      - time: .766666591
        value: {x: 0, y: .56640625, z: 0, w: .824126184}
        inSlope: {x: 0, y: .64724803, z: 0, w: -.444841206}
        outSlope: {x: 0, y: .64724803, z: 0, w: -.444841206}
        tangentMode: 0
      - time: .783333242
        value: {x: 0, y: .577145159, z: 0, w: .816641569}
        inSlope: {x: 0, y: .641370416, z: 0, w: -.453275859}
        outSlope: {x: 0, y: .641370416, z: 0, w: -.453275859}
        tangentMode: 0
      - time: .799999893
        value: {x: 0, y: .587785244, z: 0, w: .809017003}
        inSlope: {x: 0, y: .635383725, z: 0, w: -.461633652}
        outSlope: {x: 0, y: .635383725, z: 0, w: -.461633652}
        tangentMode: 0
      - time: .816666543
        value: {x: 0, y: .598324597, z: 0, w: .801253796}
        inSlope: {x: 0, y: .629284382, z: 0, w: -.469909161}
        outSlope: {x: 0, y: .629284382, z: 0, w: -.469909161}
        tangentMode: 0
      - time: .833333194
        value: {x: 0, y: .60876137, z: 0, w: .793353379}
        inSlope: {x: 0, y: .623079538, z: 0, w: -.478104204}
        outSlope: {x: 0, y: .623079538, z: 0, w: -.478104204}
        tangentMode: 0
      - time: .849999845
        value: {x: 0, y: .619093895, z: 0, w: .785317004}
        inSlope: {x: 0, y: .616770983, z: 0, w: -.486222386}
        outSlope: {x: 0, y: .616770983, z: 0, w: -.486222386}
        tangentMode: 0
      - time: .866666496
        value: {x: 0, y: .629320383, z: 0, w: .777145982}
        inSlope: {x: 0, y: .610353351, z: 0, w: -.494254708}
        outSlope: {x: 0, y: .610353351, z: 0, w: -.494254708}
        tangentMode: 0
      - time: .883333147
        value: {x: 0, y: .639438987, z: 0, w: .768841863}
        inSlope: {x: 0, y: .60382843, z: 0, w: -.502199411}
        outSlope: {x: 0, y: .60382843, z: 0, w: -.502199411}
        tangentMode: 0
      - time: .899999797
        value: {x: 0, y: .649447978, z: 0, w: .760406017}
        inSlope: {x: 0, y: .597201586, z: 0, w: -.510060072}
        outSlope: {x: 0, y: .597201586, z: 0, w: -.510060072}
        tangentMode: 0
      - time: .916666448
        value: {x: 0, y: .659345686, z: 0, w: .751839876}
        inSlope: {x: 0, y: .590476394, z: 0, w: -.517834902}
        outSlope: {x: 0, y: .590476394, z: 0, w: -.517834902}
        tangentMode: 0
      - time: .933333099
        value: {x: 0, y: .669130504, z: 0, w: .74314487}
        inSlope: {x: 0, y: .583649218, z: 0, w: -.525518537}
        outSlope: {x: 0, y: .583649218, z: 0, w: -.525518537}
        tangentMode: 0
      - time: .94999975
        value: {x: 0, y: .678800642, z: 0, w: .734322608}
        inSlope: {x: 0, y: .576720178, z: 0, w: -.533112764}
        outSlope: {x: 0, y: .576720178, z: 0, w: -.533112764}
        tangentMode: 0
      - time: .9666664
        value: {x: 0, y: .688354492, z: 0, w: .72537446}
        inSlope: {x: 0, y: .569692791, z: 0, w: -.540617645}
        outSlope: {x: 0, y: .569692791, z: 0, w: -.540617645}
        tangentMode: 0
      - time: .983333051
        value: {x: 0, y: .697790384, z: 0, w: .716302037}
        inSlope: {x: 0, y: .562565625, z: 0, w: -.548028111}
        outSlope: {x: 0, y: .562565625, z: 0, w: -.548028111}
        tangentMode: 0
      - time: 1
        value: {x: 0, y: .707106829, z: 0, w: .707106709}
        inSlope: {x: 0, y: .558977187, z: 0, w: -.551710308}
        outSlope: {x: 0, y: .558977187, z: 0, w: -.551710308}
        tangentMode: 0
      m_PreInfinity: 2
      m_PostInfinity: 2
    path: 
  m_CompressedRotationCurves: []
  m_PositionCurves:
  - curve:
      serializedVersion: 2
      m_Curve:
      - time: 0
        value: {x: 0, y: .5, z: 0}
        inSlope: {x: 0, y: -.200000048, z: 0}
        outSlope: {x: 0, y: -.200000048, z: 0}
        tangentMode: 0
      - time: .25
        value: {x: 0, y: .449999988, z: 0}
        inSlope: {x: 0, y: 0, z: 0}
        outSlope: {x: 0, y: 0, z: 0}
        tangentMode: 0
      - time: .5
        value: {x: 0, y: .5, z: 0}
        inSlope: {x: 0, y: .200000048, z: 0}
        outSlope: {x: 0, y: .200000048, z: 0}
        tangentMode: 0
      - time: .75
        value: {x: 0, y: .550000012, z: 0}
        inSlope: {x: 0, y: 0, z: 0}
        outSlope: {x: 0, y: 0, z: 0}
        tangentMode: 0
      - time: 1
        value: {x: 0, y: .5, z: 0}
        inSlope: {x: 0, y: -.200000048, z: 0}
        outSlope: {x: 0, y: -.200000048, z: 0}
        tangentMode: 0
      m_PreInfinity: 2
      m_PostInfinity: 2
    path: 
  m_ScaleCurves: []
  m_FloatCurves: []
  m_PPtrCurves: []
  m_SampleRate: 60
  m_WrapMode: 0
  m_Bounds:
    m_Center: {x: 0, y: 0, z: 0}
    m_Extent: {x: 0, y: 0, z: 0}
  m_ClipBindingConstant:
    genericBindings:
    - path: 0
      attribute: 1
      script: {fileID: 0}
      classID: 4
      customType: 0
      isPPtrCurve: 0
    - path: 0
      attribute: 2
      script: {fileID: 0}
      classID: 4
      customType: 0
      isPPtrCurve: 0
    pptrCurveMapping: []
  m_AnimationClipSettings:
    serializedVersion: 2
    m_StartTime: 0
    m_StopTime: 1
    m_OrientationOffsetY: 0
    m_Level: 0
    m_CycleOffset: 0
    m_LoopTime: 1
    m_LoopBlend: 0
    m_LoopBlendOrientation: 0
    m_LoopBlendPositionY: 0
    m_LoopBlendPositionXZ: 0
    m_KeepOriginalOrientation: 0
    m_KeepOriginalPositionY: 1
    m_KeepOriginalPositionXZ: 0
    m_HeightFromFeet: 0
    m_Mirror: 0
  m_EditorCurves:
  - curve:
      serializedVersion: 2
      m_Curve:
      - time: 0
        value: 0
        inSlope: 0
        outSlope: 0
        tangentMode: 10
      - time: .25
        value: 0
        inSlope: 0
        outSlope: 0
        tangentMode: 10
      - time: .5
        value: 0
        inSlope: 0
        outSlope: 0
        tangentMode: 10
      - time: .75
        value: 0
        inSlope: 0
        outSlope: 0
        tangentMode: 10
      - time: 1
        value: 0
        inSlope: 0
        outSlope: 0
        tangentMode: 10
      m_PreInfinity: 2
      m_PostInfinity: 2
    attribute: m_LocalPosition.x
    path: 
    classID: 4
    script: {fileID: 0}
  - curve:
      serializedVersion: 2
      m_Curve:
      - time: 0
        value: .5
        inSlope: -.200000048
        outSlope: -.200000048
        tangentMode: 10
      - time: .25
        value: .449999988
        inSlope: 0
        outSlope: 0
        tangentMode: 10
      - time: .5
        value: .5
        inSlope: .200000048
        outSlope: .200000048
        tangentMode: 10
      - time: .75
        value: .550000012
        inSlope: 0
        outSlope: 0
        tangentMode: 10
      - time: 1
        value: .5
        inSlope: -.200000048
        outSlope: -.200000048
        tangentMode: 10
      m_PreInfinity: 2
      m_PostInfinity: 2
    attribute: m_LocalPosition.y
    path: 
    classID: 4
    script: {fileID: 0}
  - curve:
      serializedVersion: 2
      m_Curve:
      - time: 0
        value: 0
        inSlope: 0
        outSlope: 0
        tangentMode: 10
      - time: .25
        value: 0
        inSlope: 0
        outSlope: 0
        tangentMode: 10
      - time: .5
        value: 0
        inSlope: 0
        outSlope: 0
        tangentMode: 10
      - time: .75
        value: 0
        inSlope: 0
        outSlope: 0
        tangentMode: 10
      - time: 1
        value: 0
        inSlope: 0
        outSlope: 0
        tangentMode: 10
      m_PreInfinity: 2
      m_PostInfinity: 2
    attribute: m_LocalPosition.z
    path: 
    classID: 4
    script: {fileID: 0}
  - curve:
      serializedVersion: 2
      m_Curve:
      - time: 0
        value: 0
        inSlope: 0
        outSlope: 0
        tangentMode: 0
      - time: .0166666675
        value: 0
        inSlope: 0
        outSlope: 0
        tangentMode: 0
      - time: .0333333351
        value: 0
        inSlope: 0
        outSlope: 0
        tangentMode: 0
      - time: .0500000045
        value: 0
        inSlope: 0
        outSlope: 0
        tangentMode: 0
      - time: .0666666701
        value: 0
        inSlope: 0
        outSlope: 0
        tangentMode: 0
      - time: .0833333358
        value: 0
        inSlope: 0
        outSlope: 0
        tangentMode: 0
      - time: .100000001
        value: 0
        inSlope: 0
        outSlope: 0
        tangentMode: 0
      - time: .116666667
        value: 0
        inSlope: 0
        outSlope: 0
        tangentMode: 0
      - time: .13333334
        value: 0
        inSlope: 0
        outSlope: 0
        tangentMode: 0
      - time: .150000006
        value: 0
        inSlope: 0
        outSlope: 0
        tangentMode: 0
      - time: .166666672
        value: 0
        inSlope: 0
        outSlope: 0
        tangentMode: 0
      - time: .183333337
        value: 0
        inSlope: 0
        outSlope: 0
        tangentMode: 0
      - time: .200000003
        value: 0
        inSlope: 0
        outSlope: 0
        tangentMode: 0
      - time: .216666669
        value: 0
        inSlope: 0
        outSlope: 0
        tangentMode: 0
      - time: .233333334
        value: 0
        inSlope: 0
        outSlope: 0
        tangentMode: 0
      - time: .25
        value: 0
        inSlope: 0
        outSlope: 0
        tangentMode: 0
      - time: .266666681
        value: 0
        inSlope: 0
        outSlope: 0
        tangentMode: 0
      - time: .283333361
        value: 0
        inSlope: 0
        outSlope: 0
        tangentMode: 0
      - time: .300000042
        value: 0
        inSlope: 0
        outSlope: 0
        tangentMode: 0
      - time: .316666722
        value: 0
        inSlope: 0
        outSlope: 0
        tangentMode: 0
      - time: .333333403
        value: 0
        inSlope: 0
        outSlope: 0
        tangentMode: 0
      - time: .350000083
        value: 0
        inSlope: 0
        outSlope: 0
        tangentMode: 0
      - time: .366666764
        value: 0
        inSlope: 0
        outSlope: 0
        tangentMode: 0
      - time: .383333445
        value: 0
        inSlope: 0
        outSlope: 0
        tangentMode: 0
      - time: .400000125
        value: 0
        inSlope: 0
        outSlope: 0
        tangentMode: 0
      - time: .416666806
        value: 0
        inSlope: 0
        outSlope: 0
        tangentMode: 0
      - time: .433333486
        value: 0
        inSlope: 0
        outSlope: 0
        tangentMode: 0
      - time: .450000167
        value: 0
        inSlope: 0
        outSlope: 0
        tangentMode: 0
      - time: .466666847
        value: 0
        inSlope: 0
        outSlope: 0
        tangentMode: 0
      - time: .483333528
        value: 0
        inSlope: 0
        outSlope: 0
        tangentMode: 0
      - time: .500000179
        value: 0
        inSlope: 0
        outSlope: 0
        tangentMode: 0
      - time: .51666683
        value: 0
        inSlope: 0
        outSlope: 0
        tangentMode: 0
      - time: .53333348
        value: 0
        inSlope: 0
        outSlope: 0
        tangentMode: 0
      - time: .550000131
        value: 0
        inSlope: 0
        outSlope: 0
        tangentMode: 0
      - time: .566666782
        value: 0
        inSlope: 0
        outSlope: 0
        tangentMode: 0
      - time: .583333433
        value: 0
        inSlope: 0
        outSlope: 0
        tangentMode: 0
      - time: .600000083
        value: 0
        inSlope: 0
        outSlope: 0
        tangentMode: 0
      - time: .616666734
        value: 0
        inSlope: 0
        outSlope: 0
        tangentMode: 0
      - time: .633333385
        value: 0
        inSlope: 0
        outSlope: 0
        tangentMode: 0
      - time: .650000036
        value: 0
        inSlope: 0
        outSlope: 0
        tangentMode: 0
      - time: .666666687
        value: 0
        inSlope: 0
        outSlope: 0
        tangentMode: 0
      - time: .683333337
        value: 0
        inSlope: 0
        outSlope: 0
        tangentMode: 0
      - time: .699999988
        value: 0
        inSlope: 0
        outSlope: 0
        tangentMode: 0
      - time: .716666639
        value: 0
        inSlope: 0
        outSlope: 0
        tangentMode: 0
      - time: .73333329
        value: 0
        inSlope: 0
        outSlope: 0
        tangentMode: 0
      - time: .74999994
        value: 0
        inSlope: 0
        outSlope: 0
        tangentMode: 0
      - time: .766666591
        value: 0
        inSlope: 0
        outSlope: 0
        tangentMode: 0
      - time: .783333242
        value: 0
        inSlope: 0
        outSlope: 0
        tangentMode: 0
      - time: .799999893
        value: 0
        inSlope: 0
        outSlope: 0
        tangentMode: 0
      - time: .816666543
        value: 0
        inSlope: 0
        outSlope: 0
        tangentMode: 0
      - time: .833333194
        value: 0
        inSlope: 0
        outSlope: 0
        tangentMode: 0
      - time: .849999845
        value: 0
        inSlope: 0
        outSlope: 0
        tangentMode: 0
      - time: .866666496
        value: 0
        inSlope: 0
        outSlope: 0
        tangentMode: 0
      - time: .883333147
        value: 0
        inSlope: 0
        outSlope: 0
        tangentMode: 0
      - time: .899999797
        value: 0
        inSlope: 0
        outSlope: 0
        tangentMode: 0
      - time: .916666448
        value: 0
        inSlope: 0
        outSlope: 0
        tangentMode: 0
      - time: .933333099
        value: 0
        inSlope: 0
        outSlope: 0
        tangentMode: 0
      - time: .94999975
        value: 0
        inSlope: 0
        outSlope: 0
        tangentMode: 0
      - time: .9666664
        value: 0
        inSlope: 0
        outSlope: 0
        tangentMode: 0
      - time: .983333051
        value: 0
        inSlope: 0
        outSlope: 0
        tangentMode: 0
      - time: 1
        value: 0
        inSlope: 0
        outSlope: 0
        tangentMode: 0
      m_PreInfinity: 2
      m_PostInfinity: 2
    attribute: m_LocalRotation.x
    path: 
    classID: 4
    script: {fileID: 0}
  - curve:
      serializedVersion: 2
      m_Curve:
      - time: 0
        value: 0
        inSlope: .785375834
        outSlope: .785375834
        tangentMode: 0
      - time: .0166666675
        value: .0130895982
        inSlope: .785308599
        outSlope: .785308599
        tangentMode: 0
      - time: .0333333351
        value: .0261769537
        inSlope: .785106719
        outSlope: .785106719
        tangentMode: 0
      - time: .0500000045
        value: .0392598249
        inSlope: .78477037
        outSlope: .78477037
        tangentMode: 0
      - time: .0666666701
        value: .0523359664
        inSlope: .784299552
        outSlope: .784299552
        tangentMode: 0
      - time: .0833333358
        value: .0654031411
        inSlope: .783694267
        outSlope: .783694267
        tangentMode: 0
      - time: .100000001
        value: .0784591064
        inSlope: .782954752
        outSlope: .782954752
        tangentMode: 0
      - time: .116666667
        value: .0915016308
        inSlope: .782081068
        outSlope: .782081068
        tangentMode: 0
      - time: .13333334
        value: .104528479
        inSlope: .781073451
        outSlope: .781073451
        tangentMode: 0
      - time: .150000006
        value: .117537417
        inSlope: .779932141
        outSlope: .779932141
        tangentMode: 0
      - time: .166666672
        value: .130526215
        inSlope: .778656721
        outSlope: .778656721
        tangentMode: 0
      - time: .183333337
        value: .143492639
        inSlope: .777248383
        outSlope: .777248383
        tangentMode: 0
      - time: .200000003
        value: .156434491
        inSlope: .77570653
        outSlope: .77570653
        tangentMode: 0
      - time: .216666669
        value: .169349521
        inSlope: .77403152
        outSlope: .77403152
        tangentMode: 0
      - time: .233333334
        value: .182235539
        inSlope: .772224545
        outSlope: .772224545
        tangentMode: 0
      - time: .25
        value: .195090339
        inSlope: .770285428
        outSlope: .770285428
        tangentMode: 0
      - time: .266666681
        value: .20791173
        inSlope: .768213511
        outSlope: .768213511
        tangentMode: 0
      - time: .283333361
        value: .220697477
        inSlope: .766010046
        outSlope: .766010046
        tangentMode: 0
      - time: .300000042
        value: .233445421
        inSlope: .763675213
        outSlope: .763675213
        tangentMode: 0
      - time: .316666722
        value: .24615334
        inSlope: .761209846
        outSlope: .761209846
        tangentMode: 0
      - time: .333333403
        value: .258819103
        inSlope: .758615255
        outSlope: .758615255
        tangentMode: 0
      - time: .350000083
        value: .271440536
        inSlope: .755889654
        outSlope: .755889654
        tangentMode: 0
      - time: .366666764
        value: .284015447
        inSlope: .753033102
        outSlope: .753033102
        tangentMode: 0
      - time: .383333445
        value: .296541661
        inSlope: .750049591
        outSlope: .750049591
        tangentMode: 0
      - time: .400000125
        value: .309017122
        inSlope: .746937394
        outSlope: .746937394
        tangentMode: 0
      - time: .416666806
        value: .321439594
        inSlope: .743696392
        outSlope: .743696392
        tangentMode: 0
      - time: .433333486
        value: .333807021
        inSlope: .740328431
        outSlope: .740328431
        tangentMode: 0
      - time: .450000167
        value: .346117228
        inSlope: .736831725
        outSlope: .736831725
        tangentMode: 0
      - time: .466666847
        value: .358368099
        inSlope: .733210742
        outSlope: .733210742
        tangentMode: 0
      - time: .483333528
        value: .370557606
        inSlope: .729464352
        outSlope: .729464352
        tangentMode: 0
      - time: .500000179
        value: .382683575
        inSlope: .725592792
        outSlope: .725592792
        tangentMode: 0
      - time: .51666683
        value: .394744009
        inSlope: .721597195
        outSlope: .721597195
        tangentMode: 0
      - time: .53333348
        value: .406736791
        inSlope: .717476368
        outSlope: .717476368
        tangentMode: 0
      - time: .550000131
        value: .418659866
        inSlope: .713233113
        outSlope: .713233113
        tangentMode: 0
      - time: .566666782
        value: .430511206
        inSlope: .708868265
        outSlope: .708868265
        tangentMode: 0
      - time: .583333433
        value: .442288786
        inSlope: .704381824
        outSlope: .704381824
        tangentMode: 0
      - time: .600000083
        value: .453990579
        inSlope: .699775577
        outSlope: .699775577
        tangentMode: 0
      - time: .616666734
        value: .465614617
        inSlope: .695047736
        outSlope: .695047736
        tangentMode: 0
      - time: .633333385
        value: .477158815
        inSlope: .690201879
        outSlope: .690201879
        tangentMode: 0
      - time: .650000036
        value: .488621324
        inSlope: .685238004
        outSlope: .685238004
        tangentMode: 0
      - time: .666666687
        value: .50000006
        inSlope: .680154324
        outSlope: .680154324
        tangentMode: 0
      - time: .683333337
        value: .511293113
        inSlope: .674957097
        outSlope: .674957097
        tangentMode: 0
      - time: .699999988
        value: .522498608
        inSlope: .669642746
        outSlope: .669642746
        tangentMode: 0
      - time: .716666639
        value: .533614516
        inSlope: .664215744
        outSlope: .664215744
        tangentMode: 0
      - time: .73333329
        value: .544639111
        inSlope: .658672452
        outSlope: .658672452
        tangentMode: 0
      - time: .74999994
        value: .555570245
        inSlope: .653014779
        outSlope: .653014779
        tangentMode: 0
      - time: .766666591
        value: .56640625
        inSlope: .64724803
        outSlope: .64724803
        tangentMode: 0
      - time: .783333242
        value: .577145159
        inSlope: .641370416
        outSlope: .641370416
        tangentMode: 0
      - time: .799999893
        value: .587785244
        inSlope: .635383725
        outSlope: .635383725
        tangentMode: 0
      - time: .816666543
        value: .598324597
        inSlope: .629284382
        outSlope: .629284382
        tangentMode: 0
      - time: .833333194
        value: .60876137
        inSlope: .623079538
        outSlope: .623079538
        tangentMode: 0
      - time: .849999845
        value: .619093895
        inSlope: .616770983
        outSlope: .616770983
        tangentMode: 0
      - time: .866666496
        value: .629320383
        inSlope: .610353351
        outSlope: .610353351
        tangentMode: 0
      - time: .883333147
        value: .639438987
        inSlope: .60382843
        outSlope: .60382843
        tangentMode: 0
      - time: .899999797
        value: .649447978
        inSlope: .597201586
        outSlope: .597201586
        tangentMode: 0
      - time: .916666448
        value: .659345686
        inSlope: .590476394
        outSlope: .590476394
        tangentMode: 0
      - time: .933333099
        value: .669130504
        inSlope: .583649218
        outSlope: .583649218
        tangentMode: 0
      - time: .94999975
        value: .678800642
        inSlope: .576720178
        outSlope: .576720178
        tangentMode: 0
      - time: .9666664
        value: .688354492
        inSlope: .569692791
        outSlope: .569692791
        tangentMode: 0
      - time: .983333051
        value: .697790384
        inSlope: .562565625
        outSlope: .562565625
        tangentMode: 0
      - time: 1
        value: .707106829
        inSlope: .558977187
        outSlope: .558977187
        tangentMode: 0
      m_PreInfinity: 2
      m_PostInfinity: 2
    attribute: m_LocalRotation.y
    path: 
    classID: 4
    script: {fileID: 0}
  - curve:
      serializedVersion: 2
      m_Curve:
      - time: 0
        value: 0
        inSlope: 0
        outSlope: 0
        tangentMode: 0
      - time: .0166666675
        value: 0
        inSlope: 0
        outSlope: 0
        tangentMode: 0
      - time: .0333333351
        value: 0
        inSlope: 0
        outSlope: 0
        tangentMode: 0
      - time: .0500000045
        value: 0
        inSlope: 0
        outSlope: 0
        tangentMode: 0
      - time: .0666666701
        value: 0
        inSlope: 0
        outSlope: 0
        tangentMode: 0
      - time: .0833333358
        value: 0
        inSlope: 0
        outSlope: 0
        tangentMode: 0
      - time: .100000001
        value: 0
        inSlope: 0
        outSlope: 0
        tangentMode: 0
      - time: .116666667
        value: 0
        inSlope: 0
        outSlope: 0
        tangentMode: 0
      - time: .13333334
        value: 0
        inSlope: 0
        outSlope: 0
        tangentMode: 0
      - time: .150000006
        value: 0
        inSlope: 0
        outSlope: 0
        tangentMode: 0
      - time: .166666672
        value: 0
        inSlope: 0
        outSlope: 0
        tangentMode: 0
      - time: .183333337
        value: 0
        inSlope: 0
        outSlope: 0
        tangentMode: 0
      - time: .200000003
        value: 0
        inSlope: 0
        outSlope: 0
        tangentMode: 0
      - time: .216666669
        value: 0
        inSlope: 0
        outSlope: 0
        tangentMode: 0
      - time: .233333334
        value: 0
        inSlope: 0
        outSlope: 0
        tangentMode: 0
      - time: .25
        value: 0
        inSlope: 0
        outSlope: 0
        tangentMode: 0
      - time: .266666681
        value: 0
        inSlope: 0
        outSlope: 0
        tangentMode: 0
      - time: .283333361
        value: 0
        inSlope: 0
        outSlope: 0
        tangentMode: 0
      - time: .300000042
        value: 0
        inSlope: 0
        outSlope: 0
        tangentMode: 0
      - time: .316666722
        value: 0
        inSlope: 0
        outSlope: 0
        tangentMode: 0
      - time: .333333403
        value: 0
        inSlope: 0
        outSlope: 0
        tangentMode: 0
      - time: .350000083
        value: 0
        inSlope: 0
        outSlope: 0
        tangentMode: 0
      - time: .366666764
        value: 0
        inSlope: 0
        outSlope: 0
        tangentMode: 0
      - time: .383333445
        value: 0
        inSlope: 0
        outSlope: 0
        tangentMode: 0
      - time: .400000125
        value: 0
        inSlope: 0
        outSlope: 0
        tangentMode: 0
      - time: .416666806
        value: 0
        inSlope: 0
        outSlope: 0
        tangentMode: 0
      - time: .433333486
        value: 0
        inSlope: 0
        outSlope: 0
        tangentMode: 0
      - time: .450000167
        value: 0
        inSlope: 0
        outSlope: 0
        tangentMode: 0
      - time: .466666847
        value: 0
        inSlope: 0
        outSlope: 0
        tangentMode: 0
      - time: .483333528
        value: 0
        inSlope: 0
        outSlope: 0
        tangentMode: 0
      - time: .500000179
        value: 0
        inSlope: 0
        outSlope: 0
        tangentMode: 0
      - time: .51666683
        value: 0
        inSlope: 0
        outSlope: 0
        tangentMode: 0
      - time: .53333348
        value: 0
        inSlope: 0
        outSlope: 0
        tangentMode: 0
      - time: .550000131
        value: 0
        inSlope: 0
        outSlope: 0
        tangentMode: 0
      - time: .566666782
        value: 0
        inSlope: 0
        outSlope: 0
        tangentMode: 0
      - time: .583333433
        value: 0
        inSlope: 0
        outSlope: 0
        tangentMode: 0
      - time: .600000083
        value: 0
        inSlope: 0
        outSlope: 0
        tangentMode: 0
      - time: .616666734
        value: 0
        inSlope: 0
        outSlope: 0
        tangentMode: 0
      - time: .633333385
        value: 0
        inSlope: 0
        outSlope: 0
        tangentMode: 0
      - time: .650000036
        value: 0
        inSlope: 0
        outSlope: 0
        tangentMode: 0
      - time: .666666687
        value: 0
        inSlope: 0
        outSlope: 0
        tangentMode: 0
      - time: .683333337
        value: 0
        inSlope: 0
        outSlope: 0
        tangentMode: 0
      - time: .699999988
        value: 0
        inSlope: 0
        outSlope: 0
        tangentMode: 0
      - time: .716666639
        value: 0
        inSlope: 0
        outSlope: 0
        tangentMode: 0
      - time: .73333329
        value: 0
        inSlope: 0
        outSlope: 0
        tangentMode: 0
      - time: .74999994
        value: 0
        inSlope: 0
        outSlope: 0
        tangentMode: 0
      - time: .766666591
        value: 0
        inSlope: 0
        outSlope: 0
        tangentMode: 0
      - time: .783333242
        value: 0
        inSlope: 0
        outSlope: 0
        tangentMode: 0
      - time: .799999893
        value: 0
        inSlope: 0
        outSlope: 0
        tangentMode: 0
      - time: .816666543
        value: 0
        inSlope: 0
        outSlope: 0
        tangentMode: 0
      - time: .833333194
        value: 0
        inSlope: 0
        outSlope: 0
        tangentMode: 0
      - time: .849999845
        value: 0
        inSlope: 0
        outSlope: 0
        tangentMode: 0
      - time: .866666496
        value: 0
        inSlope: 0
        outSlope: 0
        tangentMode: 0
      - time: .883333147
        value: 0
        inSlope: 0
        outSlope: 0
        tangentMode: 0
      - time: .899999797
        value: 0
        inSlope: 0
        outSlope: 0
        tangentMode: 0
      - time: .916666448
        value: 0
        inSlope: 0
        outSlope: 0
        tangentMode: 0
      - time: .933333099
        value: 0
        inSlope: 0
        outSlope: 0
        tangentMode: 0
      - time: .94999975
        value: 0
        inSlope: 0
        outSlope: 0
        tangentMode: 0
      - time: .9666664
        value: 0
        inSlope: 0
        outSlope: 0
        tangentMode: 0
      - time: .983333051
        value: 0
        inSlope: 0
        outSlope: 0
        tangentMode: 0
      - time: 1
        value: 0
        inSlope: 0
        outSlope: 0
        tangentMode: 0
      m_PreInfinity: 2
      m_PostInfinity: 2
    attribute: m_LocalRotation.z
    path: 
    classID: 4
    script: {fileID: 0}
  - curve:
      serializedVersion: 2
      m_Curve:
      - time: 0
        value: 1
        inSlope: -.00513911201
        outSlope: -.00513911201
        tangentMode: 0
      - time: .0166666675
        value: .999914348
        inSlope: -.0102800122
        outSlope: -.0102800122
        tangentMode: 0
      - time: .0333333351
        value: .999657333
        inSlope: -.0205600243
        outSlope: -.0205600243
        tangentMode: 0
      - time: .0500000045
        value: .999229014
        inSlope: -.0308346748
        outSlope: -.0308346748
        tangentMode: 0
      - time: .0666666701
        value: .99862951
        inSlope: -.0411021747
        outSlope: -.0411021747
        tangentMode: 0
      - time: .0833333358
        value: .997858942
        inSlope: -.0513660945
        outSlope: -.0513660945
        tangentMode: 0
      - time: .100000001
        value: .996917307
        inSlope: -.0616210774
        outSlope: -.0616210774
        tangentMode: 0
      - time: .116666667
        value: .995804906
        inSlope: -.071861729
        outSlope: -.071861729
        tangentMode: 0
      - time: .13333334
        value: .994521916
        inSlope: -.0820934623
        outSlope: -.0820934623
        tangentMode: 0
      - time: .150000006
        value: .993068457
        inSlope: -.0923109129
        outSlope: -.0923109129
        tangentMode: 0
      - time: .166666672
        value: .991444886
        inSlope: -.102512248
        outSlope: -.102512248
        tangentMode: 0
      - time: .183333337
        value: .989651382
        inSlope: -.112695701
        outSlope: -.112695701
        tangentMode: 0
      - time: .200000003
        value: .987688363
        inSlope: -.122859493
        outSlope: -.122859493
        tangentMode: 0
      - time: .216666669
        value: .985556066
        inSlope: -.133003607
        outSlope: -.133003607
        tangentMode: 0
      - time: .233333334
        value: .98325491
        inSlope: -.143124476
        outSlope: -.143124476
        tangentMode: 0
      - time: .25
        value: .980785251
        inSlope: -.153220236
        outSlope: -.153220236
        tangentMode: 0
      - time: .266666681
        value: .978147566
        inSlope: -.163287386
        outSlope: -.163287386
        tangentMode: 0
      - time: .283333361
        value: .975342333
        inSlope: -.173329562
        outSlope: -.173329562
        tangentMode: 0
      - time: .300000042
        value: .972369909
        inSlope: -.183343142
        outSlope: -.183343142
        tangentMode: 0
      - time: .316666722
        value: .96923089
        inSlope: -.193322733
        outSlope: -.193322733
        tangentMode: 0
      - time: .333333403
        value: .965925813
        inSlope: -.203270137
        outSlope: -.203270137
        tangentMode: 0
      - time: .350000083
        value: .962455213
        inSlope: -.213183582
        outSlope: -.213183582
        tangentMode: 0
      - time: .366666764
        value: .958819687
        inSlope: -.223059475
        outSlope: -.223059475
        tangentMode: 0
      - time: .383333445
        value: .955019891
        inSlope: -.232896015
        outSlope: -.232896015
        tangentMode: 0
      - time: .400000125
        value: .95105648
        inSlope: -.242693216
        outSlope: -.242693216
        tangentMode: 0
      - time: .416666806
        value: .94693011
        inSlope: -.252451092
        outSlope: -.252451092
        tangentMode: 0
      - time: .433333486
        value: .942641437
        inSlope: -.262164265
        outSlope: -.262164265
        tangentMode: 0
      - time: .450000167
        value: .938191295
        inSlope: -.271830916
        outSlope: -.271830916
        tangentMode: 0
      - time: .466666847
        value: .933580399
        inSlope: -.281454682
        outSlope: -.281454682
        tangentMode: 0
      - time: .483333528
        value: .928809464
        inSlope: -.291028619
        outSlope: -.291028619
        tangentMode: 0
      - time: .500000179
        value: .923879445
        inSlope: -.300550759
        outSlope: -.300550759
        tangentMode: 0
      - time: .51666683
        value: .918791115
        inSlope: -.310022533
        outSlope: -.310022533
        tangentMode: 0
      - time: .53333348
        value: .91354537
        inSlope: -.319440663
        outSlope: -.319440663
        tangentMode: 0
      - time: .550000131
        value: .908143103
        inSlope: -.328805149
        outSlope: -.328805149
        tangentMode: 0
      - time: .566666782
        value: .902585208
        inSlope: -.338112444
        outSlope: -.338112444
        tangentMode: 0
      - time: .583333433
        value: .896872699
        inSlope: -.347362489
        outSlope: -.347362489
        tangentMode: 0
      - time: .600000083
        value: .89100647
        inSlope: -.356553555
        outSlope: -.356553555
        tangentMode: 0
      - time: .616666734
        value: .884987593
        inSlope: -.365682006
        outSlope: -.365682006
        tangentMode: 0
      - time: .633333385
        value: .878817081
        inSlope: -.37474966
        outSlope: -.37474966
        tangentMode: 0
      - time: .650000036
        value: .872495949
        inSlope: -.383751154
        outSlope: -.383751154
        tangentMode: 0
      - time: .666666687
        value: .866025388
        inSlope: -.392688274
        outSlope: -.392688274
        tangentMode: 0
      - time: .683333337
        value: .859406352
        inSlope: -.401557475
        outSlope: -.401557475
        tangentMode: 0
      - time: .699999988
        value: .852640152
        inSlope: -.410356909
        outSlope: -.410356909
        tangentMode: 0
      - time: .716666639
        value: .845727801
        inSlope: -.419088423
        outSlope: -.419088423
        tangentMode: 0
      - time: .73333329
        value: .838670552
        inSlope: -.427746594
        outSlope: -.427746594
        tangentMode: 0
      - time: .74999994
        value: .831469595
        inSlope: -.436331451
        outSlope: -.436331451
        tangentMode: 0
      - time: .766666591
        value: .824126184
        inSlope: -.444841206
        outSlope: -.444841206
        tangentMode: 0
      - time: .783333242
        value: .816641569
        inSlope: -.453275859
        outSlope: -.453275859
        tangentMode: 0
      - time: .799999893
        value: .809017003
        inSlope: -.461633652
        outSlope: -.461633652
        tangentMode: 0
      - time: .816666543
        value: .801253796
        inSlope: -.469909161
        outSlope: -.469909161
        tangentMode: 0
      - time: .833333194
        value: .793353379
        inSlope: -.478104204
        outSlope: -.478104204
        tangentMode: 0
      - time: .849999845
        value: .785317004
        inSlope: -.486222386
        outSlope: -.486222386
        tangentMode: 0
      - time: .866666496
        value: .777145982
        inSlope: -.494254708
        outSlope: -.494254708
        tangentMode: 0
      - time: .883333147
        value: .768841863
        inSlope: -.502199411
        outSlope: -.502199411
        tangentMode: 0
      - time: .899999797
        value: .760406017
        inSlope: -.510060072
        outSlope: -.510060072
        tangentMode: 0
      - time: .916666448
        value: .751839876
        inSlope: -.517834902
        outSlope: -.517834902
        tangentMode: 0
      - time: .933333099
        value: .74314487
        inSlope: -.525518537
        outSlope: -.525518537
        tangentMode: 0
      - time: .94999975
        value: .734322608
        inSlope: -.533112764
        outSlope: -.533112764
        tangentMode: 0
      - time: .9666664
        value: .72537446
        inSlope: -.540617645
        outSlope: -.540617645
        tangentMode: 0
      - time: .983333051
        value: .716302037
        inSlope: -.548028111
        outSlope: -.548028111
        tangentMode: 0
      - time: 1
        value: .707106709
        inSlope: -.551710308
        outSlope: -.551710308
        tangentMode: 0
      m_PreInfinity: 2
      m_PostInfinity: 2
    attribute: m_LocalRotation.w
    path: 
    classID: 4
    script: {fileID: 0}
  m_EulerEditorCurves:
  - curve:
      serializedVersion: 2
      m_Curve:
      - time: 0
        value: 0
        inSlope: 0
        outSlope: 0
        tangentMode: 10
      - time: .25
        value: 0
        inSlope: 0
        outSlope: 0
        tangentMode: 10
      - time: .5
        value: 0
        inSlope: 0
        outSlope: 0
        tangentMode: 10
      - time: .75
        value: 0
        inSlope: 0
        outSlope: 0
        tangentMode: 10
      - time: 1
        value: 0
        inSlope: 0
        outSlope: 0
        tangentMode: 10
      m_PreInfinity: 2
      m_PostInfinity: 2
    attribute: localEulerAnglesBaked.x
    path: 
    classID: 4
    script: {fileID: 0}
  - curve:
      serializedVersion: 2
      m_Curve:
      - time: 0
        value: 0
        inSlope: 90
        outSlope: 90
        tangentMode: 10
      - time: .25
        value: 22.5
        inSlope: 90
        outSlope: 90
        tangentMode: 10
      - time: .5
        value: 45
        inSlope: 90
        outSlope: 90
        tangentMode: 10
      - time: .75
        value: 67.5
        inSlope: 90
        outSlope: 90
        tangentMode: 10
      - time: 1
        value: 90
        inSlope: 90
        outSlope: 90
        tangentMode: 10
      m_PreInfinity: 2
      m_PostInfinity: 2
    attribute: localEulerAnglesBaked.y
    path: 
    classID: 4
    script: {fileID: 0}
  - curve:
      serializedVersion: 2
      m_Curve:
      - time: 0
        value: 0
        inSlope: 0
        outSlope: 0
        tangentMode: 10
      - time: .25
        value: 0
        inSlope: 0
        outSlope: 0
        tangentMode: 10
      - time: .5
        value: 0
        inSlope: 0
        outSlope: 0
        tangentMode: 10
      - time: .75
        value: 0
        inSlope: 0
        outSlope: 0
        tangentMode: 10
      - time: 1
        value: 0
        inSlope: 0
        outSlope: 0
        tangentMode: 10
      m_PreInfinity: 2
      m_PostInfinity: 2
    attribute: localEulerAnglesBaked.z
    path: 
    classID: 4
    script: {fileID: 0}
  m_HasGenericRootTransform: 1
  m_HasMotionFloatCurves: 0
  m_GenerateMotionCurves: 0
  m_Events: []
